id,rank
24,82
25,64
26,88
27,38
20,68
21,80
22,77
23,7
28,18
29,90
4,22
8,57
59,85
58,37
55,21
54,5
57,65
56,6
51,13
50,28
53,62
52,34
88,73
89,9
82,59
83,61
80,91
81,70
86,35
87,14
84,25
85,31
3,55
7,41
39,46
38,53
33,89
32,84
31,86
30,47
37,58
36,29
35,45
34,72
60,87
61,24
62,11
63,67
64,19
65,33
66,76
67,4
68,81
69,66
2,51
6,48
91,36
90,8
11,79
10,78
13,20
12,2
15,30
14,26
17,39
16,50
19,69
18,12
48,56
49,49
46,3
47,83
44,60
45,40
42,17
43,10
40,71
41,15
1,16
5,54
9,1
77,75
76,52
75,32
74,43
73,63
72,23
71,44
70,42
79,27
78,74
