id,rank
24,83
25,80
26,81
27,47
20,53
21,75
22,70
23,9
28,24
29,88
4,19
8,64
59,89
58,43
55,23
54,5
57,60
56,7
51,16
50,22
53,69
52,37
88,71
89,2
82,61
83,63
80,91
81,67
86,48
87,6
84,31
85,14
3,56
7,35
39,29
38,50
33,90
32,87
31,84
30,65
37,51
36,36
35,55
34,73
60,82
61,10
62,26
63,45
64,21
65,38
66,76
67,12
68,77
69,57
2,52
6,40
91,34
90,18
11,79
10,85
13,20
12,1
15,30
14,25
17,59
16,46
19,72
18,13
48,62
49,33
46,17
47,74
44,66
45,44
42,27
43,11
40,49
41,8
1,4
5,54
9,3
77,86
76,58
75,39
74,42
73,68
72,28
71,41
70,32
79,15
78,78
